................
----------------------------------------------------------------------
Ran 16 tests in 0.915s

OK
Name             Stmts   Miss Branch BrPart  Cover   Missing
------------------------------------------------------------
Collatz.py          36      0     12      0   100%
TestCollatz.py      69      0      2      0   100%
------------------------------------------------------------
TOTAL              105      0     14      0   100%
