...................
----------------------------------------------------------------------
Ran 19 tests in 0.020s

OK
Name             Stmts   Miss Branch BrPart  Cover   Missing
------------------------------------------------------------
Collatz.py          33      0     16      0   100%
TestCollatz.py      83      0      2      0   100%
------------------------------------------------------------
TOTAL              116      0     18      0   100%
